Gender at the work place – KB2
…
job_gender_data<- read_delim(file ="C:/Users/khush/Downloads/job_gender_data.csv", delim = ";")

Rows: 32 Columns: 12
── Column specification ────────────────────────────────────────────────────────
Delimiter: ";"
chr (3): occupation, major_category, minor_category
dbl (7): year, total_workers, workers_male, workers_female, total_earnings, ...
num (2): percent_female, wage_percent_of_male

ℹ Use `spec()` to retrieve the full column specification for this data.
ℹ Specify the column types or set `show_col_types = FALSE` to quiet this message.

job_gender_data

# A tibble: 32 × 12
    year occupation     major_category minor_category total_workers workers_male
   <dbl> <chr>          <chr>          <chr>                  <dbl>        <dbl>
 1  2016 Dietitians an… Healthcare Pr… Healthcare Pr…         70729         8095
 2  2016 Medical recor… Healthcare Pr… Healthcare Pr…        148302        14938
 3  2016 Pharmacists    Healthcare Pr… Healthcare Pr…        214665        97539
 4  2016 Licensed prac… Healthcare Pr… Healthcare Pr…        602316        77484
 5  2016 Miscellaneous… Healthcare Pr… Healthcare Pr…        107797        25250
 6  2016 Clinical labo… Healthcare Pr… Healthcare Pr…        245278        68887
 7  2016 Registered nu… Healthcare Pr… Healthcare Pr…       2317493       281048
 8  2016 Nurse practit… Healthcare Pr… Healthcare Pr…        116166        14128
 9  2016 Physician ass… Healthcare Pr… Healthcare Pr…         76018        27869
10  2016 Health practi… Healthcare Pr… Healthcare Pr…        440607        98824
# ℹ 22 more rows
# ℹ 6 more variables: workers_female <dbl>, percent_female <dbl>,
#   total_earnings <dbl>, total_earnings_male <dbl>,
#   total_earnings_female <dbl>, wage_percent_of_male <dbl>
…
