Tips – KB2
…
tip <- read_csv("C:/Users/khush/Downloads/tip.csv")

Rows: 60 Columns: 4
── Column specification ────────────────────────────────────────────────────────
Delimiter: ","
chr (3): Name, Gender, Preferance
dbl (1): Tip

ℹ Use `spec()` to retrieve the full column specification for this data.
ℹ Specify the column types or set `show_col_types = FALSE` to quiet this message.

tip

# A tibble: 60 × 4
   Name     Gender Preferance   Tip
   <chr>    <chr>  <chr>      <dbl>
 1 Aanya    Female Veg            0
 2 Adit     Male   Veg            0
 3 Aditi    Female Veg           20
 4 Akash    Male   Non-veg        0
 5 Akshita  Female Non-veg        0
 6 Anandita Female Non-veg        0
 7 Ananya   Female Non-veg       20
 8 Anaya    Female Veg           35
 9 Anhuya   Female Veg           40
10 Ankit    Male   Non-veg        0
# ℹ 50 more rows
…
tip_mean <- mean(~Tip, data = tip2)
belief1 <- 0 # What we think the mean is
tip_diff_mosaic <- tip_mean - belief1
tip_diff_mosaic

[1] 11.16667

Shapiro test:

tip2 %>% filter(Preferance == "Non-veg") %>% select(Tip) -> NonVeg
tip2 %>% filter(Preferance == "Veg") %>% select(Tip) -> Veg
NonVeg

# A tibble: 30 × 1
     Tip
   <dbl>
 1     0
 2     0
 3     0
 4    20
 5     0
 6     0
 7     0
 8     0
 9     0
10    20
# ℹ 20 more rows

Veg

# A tibble: 30 × 1
     Tip
   <dbl>
 1     0
 2     0
 3    20
 4    35
 5    40
 6     0
 7     0
 8     0
 9    15
10   100
# ℹ 20 more rows
…
